Check accurate recoding of variables — check_recode • finalfit
…
#> # A tibble: 2 x 3
#>     sex sex.factor     n
#>   <dbl> <fct>      <int>
#> 1     0 Female       445
#> 2     1 Male         484
#> 
#> $counts[[2]]
#> # A tibble: 2 x 3
#>     sex sex.factor2     n
#>   <dbl> <fct>       <int>
#> 1     0 M             445
#> 2     1 F             484
#> 
#> $counts[[3]]
#> # A tibble: 62 x 3
#>      age age.factor     n
#>    <dbl> <fct>      <int>
#>  1    18 <40 years      1
#>  2    22 <40 years      1
#>  3    25 <40 years      1
#>  4    26 <40 years      1
#>  5    27 <40 years      3
#>  6    28 <40 years      1
#>  7    29 <40 years      1
#>  8    30 <40 years      5
#>  9    31 <40 years      2
#> 10    32 <40 years      5
#> # … with 52 more rows
#> 
#> $counts[[4]]
#> # A tibble: 62 x 3
#>      age age.10     n
#>    <dbl>  <dbl> <int>
#>  1    18    1.8     1
#>  2    22    2.2     1
#>  3    25    2.5     1
#>  4    26    2.6     1
#>  5    27    2.7     3
#>  6    28    2.8     1
#>  7    29    2.9     1
#>  8    30    3       5
#>  9    31    3.1     2
#> 10    32    3.2     5
#> # … with 52 more rows
#> 
#> $counts[[5]]
#> # A tibble: 62 x 3
#>      age age.factor2     n
#>    <dbl> <fct>       <int>
#>  1    18 <60 years       1
#>  2    22 <60 years       1
#>  3    25 <60 years       1
#>  4    26 <60 years       1
#>  5    27 <60 years       3
#>  6    28 <60 years       1
#>  7    29 <60 years       1
#>  8    30 <60 years       5
#>  9    31 <60 years       2
#> 10    32 <60 years       5
#> # … with 52 more rows
…
#> # A tibble: 2 x 3
#>   perfor perfor.factor     n
#>    <dbl> <fct>         <int>
#> 1      0 No              902
#> 2      1 Yes              27
#> 
#> $counts[[8]]
#> # A tibble: 2 x 3
#>   adhere adhere.factor     n
#>    <dbl> <fct>         <int>
#> 1      0 No              794
#> 2      1 Yes             135
#> 
#> $counts[[9]]
#> # A tibble: 32 x 3
#>    nodes node4     n
#>    <dbl> <dbl> <int>
#>  1     0     0     2
#>  2     1     0   269
#>  3     1     1     5
#>  4     2     0   194
#>  5     3     0   124
#>  6     3     1     1
#>  7     4     0    81
#>  8     4     1     3
#>  9     5     0     1
#> 10     5     1    45
#> # … with 22 more rows
#> 
#> $counts[[10]]
#> # A tibble: 32 x 3
#>    nodes node4.factor     n
#>    <dbl> <fct>        <int>
#>  1     0 No               2
#>  2     1 No             269
#>  3     1 Yes              5
#>  4     2 No             194
#>  5     3 No             124
#>  6     3 Yes              1
#>  7     4 No              81
#>  8     4 Yes              3
#>  9     5 No               1
#> 10     5 Yes             45
#> # … with 22 more rows
…
